<?xml version="1.0" encoding="utf-8"?>
<!-- Generator: Adobe Illustrator 22.0.1, SVG Export Plug-In . SVG Version: 6.00 Build 0)  -->
<!DOCTYPE svg PUBLIC "-//W3C//DTD SVG 1.1//EN" "http://www.w3.org/Graphics/SVG/1.1/DTD/svg11.dtd">
<svg version="1.1" id="Layer_2" xmlns="http://www.w3.org/2000/svg" xmlns:xlink="http://www.w3.org/1999/xlink" x="0px" y="0px"
	 viewBox="0 0 338.8 115.2" style="enable-background:new 0 0 338.8 115.2;" xml:space="preserve">
<style type="text/css">
	.st0{fill:#FFFFFF;stroke:#FFFFFF;stroke-width:0.25;stroke-miterlimit:10;}
	.st1{fill:#FFFFFF;}
	.st2{fill:none;stroke:#FFFFFF;stroke-width:0.25;stroke-miterlimit:10;}
</style>
<g>
	<g>
		<path class="st0" d="M89.6,33.1c-1.1-4.1-2.8-8-5-11.6c-2.2-3.6-4.9-6.7-7.9-9.4c-3-2.7-6.5-4.8-10.3-6.3
			c-3.8-1.5-7.9-2.3-12.1-2.3c-5.9,0-11.2,1.3-15.8,4c-4.6,2.7-8.5,6.2-11.6,10.5c-3.1,4.4-5.5,9.3-7.2,14.8
			c-1.7,5.5-2.5,11.2-2.5,17c0,6.2,0.9,11.9,2.6,17.3c1.8,5.4,4.3,10.1,7.5,14.1c3.3,4,7.2,7.1,11.8,9.4c4.6,2.3,9.8,3.5,15.4,3.5
			c4.5,0,8.6-0.8,12.5-2.4c3.9-1.6,7.4-3.8,10.4-6.4c3-2.7,5.6-5.7,7.7-9.2c2.1-3.5,3.5-7,4.3-10.7H91l-0.4,28.3h-1.5
			c-1-1.5-2.1-2.8-3.2-4C84.8,88.6,84,88,83.6,88c-0.2,0-0.9,0.4-2.3,1.3c-1.4,0.9-3.3,1.9-5.9,3c-2.6,1.1-5.7,2-9.4,2.8
			c-3.7,0.8-7.9,1.2-12.7,1.2c-8,0-15.2-1.1-21.6-3.4c-6.4-2.3-11.9-5.5-16.4-9.6C10.8,79.1,7.4,74.2,5,68.4
			c-2.4-5.8-3.6-12.1-3.6-19.1c0-1.5,0.1-3.3,0.3-5.3c0.2-2,0.6-4.1,1.2-6.3c0.6-2.2,1.3-4.6,2.3-7c1-2.4,2.2-4.9,3.8-7.4
			c1.8-2.9,4-5.7,6.7-8.3c2.7-2.7,5.8-5,9.4-7c3.6-2,7.7-3.6,12.2-4.8c4.5-1.2,9.6-1.8,15.3-1.8c5.1,0,9.6,0.5,13.5,1.4
			c3.9,0.9,7.1,2,9.6,3.1C78.2,7,80.1,8,81.5,9c1.4,0.9,2.1,1.4,2.3,1.4c0.2,0,0.5-0.2,1-0.6c0.5-0.4,1-0.9,1.5-1.4
			c0.6-0.6,1.1-1.2,1.7-1.9c0.6-0.7,1.2-1.5,1.7-2.2h1.4V33L89.6,33.1z"/>
		<path class="st0" d="M181.3,95.8h-78.6v-1.3c2.1-0.3,4.1-0.9,6-1.7c1.8-0.8,3.4-1.8,4.6-3.2c0.4-0.5,0.8-1.3,1-2.2
			c0.3-1,0.5-2.1,0.7-3.4c0.2-1.3,0.4-2.6,0.4-4c0.1-1.4,0.1-2.8,0.1-4.2c0-1.2,0-2.8,0.1-4.9c0-2.1,0.1-4.3,0.1-6.7
			c0-2.4,0.1-4.9,0.1-7.5c0-2.7,0-5.1,0-7.4v-25c0-1.5,0-3.1-0.1-4.8c0-1.6-0.1-3.2-0.3-4.6c-0.1-1.5-0.3-2.8-0.6-3.9
			c-0.3-1.2-0.7-2-1.2-2.5c-1.3-1.4-2.7-2.2-4.1-2.6c-1.5-0.4-3.3-0.7-5.7-1.1V3.3h70.9l8.7,21.2l-1.3,0.6
			c-6.9-8.6-13.4-14.5-19.5-17.5c-1.5-0.7-4.2-1.3-8.1-1.8c-3.9-0.5-8.7-0.8-14.4-0.8c-1.8,0-3.7,0.1-5.6,0.2
			c-1.9,0.1-3.3,0.3-4.2,0.4c-0.2,1.4-0.3,4.2-0.4,8.5c-0.1,4.3-0.2,9.2-0.2,14.9c0,3.3,0,6,0,8.2c0,2.2,0,4,0.1,5.5
			c0,1.4,0.1,2.5,0.1,3.3c0,0.7,0,1.2,0,1.4c0.4,0,1.3,0,2.6,0c1.3,0,2.8,0,4.4-0.1c1.7-0.1,3.3-0.2,5-0.3c1.7-0.1,3.1-0.3,4.2-0.6
			c2.6-0.6,4.7-1.4,6.4-2.4c1.7-1,3.1-2.3,4.2-3.7c1.1-1.5,1.9-3.1,2.6-5.1c0.6-1.9,1.2-4.1,1.7-6.5h1.5v40.5H161
			c-0.7-2.7-1.7-5.6-3.1-8.5c-1.4-2.9-2.9-5.1-4.4-6.5c-1.4-1.2-3-2.2-4.9-3c-1.9-0.8-4.2-1.2-6.7-1.4c-1.3-0.1-2.4-0.1-3.2-0.2
			c-0.9,0-1.7-0.1-2.6-0.1c-0.8,0-1.6,0-2.6,0c-0.9,0-2,0-3.3,0c-0.2,1.2-0.3,3-0.3,5.3c0,2.3,0,4.7,0,7.2c0,1.1,0,2.4,0,3.9
			c0,1.5,0,2.9,0,4.4c0,1.4,0,2.7,0.1,3.9c0,1.2,0.1,2.3,0.1,3.1c0.1,2.7,0.2,5.3,0.5,7.8c0.2,2.4,0.7,4.3,1.5,5.5
			c0.8,1.2,2.6,2.1,5.5,2.6c2.9,0.5,6.1,0.8,9.5,0.8c1.5,0,3.3,0,5.6-0.1c2.3-0.1,4.6-0.3,7.1-0.6c2.7-0.3,5.3-1,7.6-2
			c2.3-1,4.5-2.4,6.7-4.2c2.1-1.8,4.2-4,6.2-6.6c2-2.6,4.1-5.8,6.2-9.4l1.4,0.4L181.3,95.8z"/>
	</g>
	<g>
		<g>
			<path class="st1" d="M271.8,61.9c-0.3,1.5-0.6,1.9-0.9,3.4c-1.3,5.4-3.3,10.3-6,14.6c-2.7,4.3-6,7.9-10,10.6
				c-4,2.7-8.7,4.1-14.1,4.1s-10.1-1.2-14.2-3.7c-4.1-2.5-7.4-5.8-10.1-9.9c-2.7-4.1-4.7-8.9-6.1-14.3c-1.4-5.4-2.1-11-2.1-16.8
				c0-5.6,0.6-11.1,1.9-16.5c1.2-5.4,3.2-10.3,5.8-14.6c2.6-4.3,6-7.8,10-10.5c4.1-2.7,8.9-4,14.4-4c5.5,0,10.2,1.3,14.3,4
				c4,2.7,7.4,6.2,10.1,10.5c2.7,4.3,4.7,9.1,6,14.4c0.3,1.2,0.6,1.4,0.8,2.6h15.7c-0.5-1.9-1-2.8-1.7-4.6c-2.1-5.7-5.2-10.6-9.2-15
				c-4-4.3-8.9-7.8-14.7-10.3c-5.8-2.6-12.3-3.9-19.6-3.9c-6.7,0-13,1.1-19.1,3.3c-6,2.2-11.3,5.3-15.8,9.4
				c-4.5,4.1-8.1,9-10.7,14.9c-2.7,5.9-4,12.5-4,19.8c0,6.9,1.3,13.3,3.8,19.1c2.5,5.8,6,10.7,10.3,14.9c4.4,4.2,9.5,7.4,15.3,9.6
				c5.8,2.3,12,3.4,18.5,3.4c6.6,0,12.8-1.2,18.7-3.5c5.9-2.3,11-5.6,15.4-9.9c4.4-4.3,7.9-9.3,10.5-15.2c1-2.3,1.8-3.6,2.4-6.1
				H271.8z"/>
		</g>
		<g>
			<path class="st2" d="M271.8,61.9c-0.3,1.5-0.6,1.9-0.9,3.4c-1.3,5.4-3.3,10.3-6,14.6c-2.7,4.3-6,7.9-10,10.6
				c-4,2.7-8.7,4.1-14.1,4.1s-10.1-1.2-14.2-3.7c-4.1-2.5-7.4-5.8-10.1-9.9c-2.7-4.1-4.7-8.9-6.1-14.3c-1.4-5.4-2.1-11-2.1-16.8
				c0-5.6,0.6-11.1,1.9-16.5c1.2-5.4,3.2-10.3,5.8-14.6c2.6-4.3,6-7.8,10-10.5c4.1-2.7,8.9-4,14.4-4c5.5,0,10.2,1.3,14.3,4
				c4,2.7,7.4,6.2,10.1,10.5c2.7,4.3,4.7,9.1,6,14.4c0.3,1.2,0.6,1.4,0.8,2.6h15.7c-0.5-1.9-1-2.8-1.7-4.6c-2.1-5.7-5.2-10.6-9.2-15
				c-4-4.3-8.9-7.8-14.7-10.3c-5.8-2.6-12.3-3.9-19.6-3.9c-6.7,0-13,1.1-19.1,3.3c-6,2.2-11.3,5.3-15.8,9.4
				c-4.5,4.1-8.1,9-10.7,14.9c-2.7,5.9-4,12.5-4,19.8c0,6.9,1.3,13.3,3.8,19.1c2.5,5.8,6,10.7,10.3,14.9c4.4,4.2,9.5,7.4,15.3,9.6
				c5.8,2.3,12,3.4,18.5,3.4c6.6,0,12.8-1.2,18.7-3.5c5.9-2.3,11-5.6,15.4-9.9c4.4-4.3,7.9-9.3,10.5-15.2c1-2.3,1.8-3.6,2.4-6.1
				H271.8z"/>
		</g>
	</g>
</g>
<g>
	<path class="st1" d="M239.3,56.4v-0.2c0.5,0,1-0.2,1.4-0.4c0.4-0.2,0.6-0.5,0.7-0.8c0.1-0.2,0.1-0.4,0.2-0.7c0-0.3,0.1-0.5,0.1-0.8
		c0-0.9,0-1.8,0-2.6c0-0.8,0-1.7,0-2.6v-5.9c-0.4,1-0.8,2-1.1,2.8c-0.3,0.9-0.7,1.7-1,2.5c-0.3,0.8-0.7,1.7-1,2.5
		c-0.3,0.9-0.7,1.8-1.1,2.8c-0.1,0.1-0.2,0.4-0.3,0.7c-0.1,0.3-0.2,0.6-0.3,0.9c-0.1,0.3-0.2,0.6-0.3,0.9c-0.1,0.3-0.2,0.4-0.2,0.5
		h-0.1c-0.4-1-0.8-2.1-1.2-3.1c-0.4-1-0.8-2-1.2-2.9c-0.4-0.9-0.7-1.8-1.1-2.6c-0.3-0.8-0.6-1.6-0.9-2.2c-0.3-0.6-0.5-1.2-0.6-1.6
		c-0.2-0.4-0.3-0.7-0.3-0.9c0,0.9,0,1.7,0,2.4c0,0.7,0,1.4,0,2.1c0,0.7,0,1.4,0,2.2c0,0.8,0,1.7,0,2.7c0,0.7,0,1.2,0.1,1.7
		s0.1,0.9,0.3,1.2c0.2,0.3,0.4,0.6,0.7,0.8c0.3,0.2,0.7,0.3,1.3,0.4v0.2h-4.9v-0.2c0.4-0.1,0.8-0.2,1.1-0.4c0.3-0.2,0.5-0.4,0.7-0.8
		c0.2-0.3,0.3-0.7,0.4-1.2c0.1-0.5,0.1-1.1,0.1-1.8c0-0.6,0-1.3,0.1-2.1c0-0.8,0-1.7,0-2.6c0-0.4,0-0.7,0-1c0-0.3,0-0.5,0-0.8
		c0-0.3,0-0.5,0-0.8c0-0.3,0-0.6,0-1c0-0.4-0.1-0.7-0.2-0.9c-0.1-0.2-0.3-0.4-0.5-0.6c-0.2-0.1-0.4-0.2-0.6-0.3
		c-0.2-0.1-0.4-0.1-0.5-0.1v-0.2h4l4.5,11.3c0.6-1.3,1.1-2.6,1.6-3.9c0.5-1.3,1-2.5,1.4-3.5c0.4-1.1,0.8-1.9,1-2.6
		c0.3-0.7,0.4-1.1,0.5-1.2h4v0.2c-0.5,0-0.9,0.1-1.2,0.4c-0.3,0.2-0.5,0.5-0.6,0.8c-0.1,0.2-0.1,0.6-0.1,1.1c0,0.5,0,1-0.1,1.5
		c0,0.7,0,1.3,0,1.9c0,0.6,0,1.3,0,1.9c0,0.8,0,1.5,0,2.3c0,0.7,0,1.5,0,2.3c0,0.3,0,0.5,0,0.8c0,0.3,0.1,0.5,0.2,0.6
		c0,0,0.1,0.1,0.1,0.2c0.1,0.1,0.2,0.2,0.3,0.3c0.1,0.1,0.3,0.2,0.6,0.3s0.5,0.1,0.8,0.2v0.2H239.3z"/>
	<path class="st1" d="M254.5,56.4v-0.2c0,0,0.1,0,0.3,0c0.1,0,0.3-0.1,0.5-0.1c0.2-0.1,0.3-0.2,0.4-0.3c0.1-0.1,0.2-0.3,0.2-0.5
		c0-0.1,0-0.3-0.1-0.6c-0.1-0.3-0.2-0.6-0.3-1c-0.1-0.4-0.3-0.9-0.4-1.4c-0.2-0.5-0.3-1-0.5-1.6h-5c-0.2,0.5-0.4,1-0.5,1.5
		c-0.2,0.5-0.4,1-0.5,1.5c-0.3,0.8-0.4,1.3-0.4,1.6c0,0.2,0,0.3,0.1,0.4c0.1,0.1,0.2,0.2,0.4,0.3c0.2,0.1,0.3,0.1,0.5,0.2
		c0.2,0,0.4,0.1,0.5,0.1v0.2h-4v-0.2c0.3,0,0.6-0.1,0.8-0.3c0.2-0.2,0.4-0.3,0.4-0.3c0.1-0.1,0.2-0.3,0.4-0.7
		c0.2-0.4,0.4-0.9,0.7-1.6c0.3-0.7,0.6-1.4,0.9-2.2c0.3-0.8,0.7-1.7,1-2.6c0.3-0.9,0.7-1.8,1-2.7c0.3-0.9,0.7-1.7,1-2.5l-0.2-0.5
		c0.2-0.1,0.4-0.2,0.6-0.4c0.2-0.2,0.3-0.3,0.5-0.5c0.1-0.2,0.3-0.3,0.3-0.5c0.1-0.2,0.2-0.3,0.2-0.4h0.2c0.4,1.2,0.8,2.2,1.1,3.3
		c0.4,1,0.7,2,1,3s0.6,1.9,0.9,2.8c0.3,0.9,0.6,1.8,0.9,2.7c0.1,0.4,0.3,0.8,0.4,1.1c0.1,0.3,0.3,0.6,0.4,1c0,0.1,0.1,0.2,0.2,0.3
		c0.1,0.1,0.2,0.3,0.3,0.4c0.1,0.1,0.3,0.3,0.5,0.4c0.2,0.1,0.5,0.2,0.8,0.2v0.3H254.5z M252.1,43.7c-0.1,0.2-0.2,0.5-0.3,0.9
		c-0.1,0.4-0.3,0.9-0.5,1.4c-0.2,0.6-0.4,1.2-0.7,1.9c-0.3,0.7-0.5,1.5-0.8,2.3h4.7c-0.2-0.6-0.4-1.3-0.6-1.9
		c-0.2-0.6-0.4-1.2-0.6-1.8s-0.4-1.1-0.6-1.6C252.3,44.4,252.2,44,252.1,43.7z"/>
	<path class="st1" d="M273.5,49.6c-0.3,0.1-0.4,0.2-0.5,0.4c-0.1,0.2-0.1,0.4-0.1,0.7c0,0.3,0,0.6,0,1v3c-0.1,0.1-0.3,0.2-0.6,0.4
		c-0.3,0.2-0.8,0.4-1.3,0.6c-0.5,0.2-1,0.4-1.6,0.5c-0.6,0.1-1.2,0.2-1.8,0.2c-1.2,0-2.3-0.2-3.2-0.5c-0.9-0.3-1.7-0.8-2.4-1.5
		c-0.6-0.7-1.1-1.5-1.5-2.4c-0.3-1-0.5-2-0.5-3.2c0-0.3,0-0.7,0.1-1.2c0.1-0.5,0.2-0.9,0.3-1.4c0.2-0.5,0.4-1,0.7-1.5
		c0.3-0.5,0.6-1,1.1-1.5c0.6-0.7,1.3-1.2,2.2-1.6c0.9-0.4,1.9-0.6,3.2-0.6c0.8,0,1.4,0.1,2,0.2c0.6,0.1,1.1,0.3,1.5,0.5
		c0.4,0.2,0.7,0.3,0.9,0.5c0.2,0.1,0.3,0.2,0.4,0.2s0.1-0.1,0.2-0.3c0.1-0.2,0.3-0.4,0.4-0.6h0.2v4.5h-0.2c-0.1-0.6-0.3-1.2-0.6-1.8
		c-0.3-0.6-0.6-1-0.9-1.4c-0.4-0.5-0.9-0.9-1.5-1.1c-0.6-0.3-1.3-0.4-2.1-0.4c-0.8,0-1.6,0.2-2.2,0.6c-0.7,0.4-1.2,1-1.7,1.6
		c-0.5,0.7-0.8,1.5-1.1,2.4c-0.3,0.9-0.4,1.8-0.4,2.8c0,1.1,0.1,2.1,0.4,3c0.2,0.9,0.6,1.7,1,2.3c0.5,0.6,1,1.1,1.7,1.5
		c0.6,0.4,1.4,0.5,2.2,0.5c0.6,0,1.2-0.1,1.7-0.3c0.5-0.2,0.9-0.6,1.2-1.1c0.1-0.2,0.2-0.5,0.2-1c0-0.5,0.1-0.9,0.1-1.4
		s0-0.9-0.1-1.3c0-0.4-0.2-0.7-0.4-1c-0.3-0.4-0.8-0.6-1.5-0.6v-0.2h5.5v0.2C273.9,49.4,273.7,49.5,273.5,49.6z"/>
	<path class="st1" d="M283,56.4v-0.2c0,0,0.1,0,0.3,0c0.1,0,0.3-0.1,0.5-0.1c0.2-0.1,0.3-0.2,0.4-0.3c0.1-0.1,0.2-0.3,0.2-0.5
		c0-0.1,0-0.3-0.1-0.6c-0.1-0.3-0.2-0.6-0.3-1c-0.1-0.4-0.3-0.9-0.4-1.4c-0.2-0.5-0.3-1-0.5-1.6h-5c-0.2,0.5-0.4,1-0.5,1.5
		c-0.2,0.5-0.4,1-0.5,1.5c-0.3,0.8-0.4,1.3-0.4,1.6c0,0.2,0,0.3,0.1,0.4c0.1,0.1,0.2,0.2,0.4,0.3c0.2,0.1,0.3,0.1,0.5,0.2
		c0.2,0,0.4,0.1,0.5,0.1v0.2h-4v-0.2c0.3,0,0.6-0.1,0.8-0.3c0.2-0.2,0.4-0.3,0.4-0.3c0.1-0.1,0.2-0.3,0.4-0.7
		c0.2-0.4,0.4-0.9,0.7-1.6c0.3-0.7,0.6-1.4,0.9-2.2c0.3-0.8,0.7-1.7,1-2.6c0.3-0.9,0.7-1.8,1-2.7c0.3-0.9,0.7-1.7,1-2.5l-0.2-0.5
		c0.2-0.1,0.4-0.2,0.6-0.4c0.2-0.2,0.3-0.3,0.5-0.5c0.1-0.2,0.3-0.3,0.3-0.5c0.1-0.2,0.2-0.3,0.2-0.4h0.2c0.4,1.2,0.8,2.2,1.1,3.3
		s0.7,2,1,3s0.6,1.9,0.9,2.8c0.3,0.9,0.6,1.8,0.9,2.7c0.1,0.4,0.3,0.8,0.4,1.1c0.1,0.3,0.3,0.6,0.4,1c0,0.1,0.1,0.2,0.2,0.3
		c0.1,0.1,0.2,0.3,0.3,0.4c0.1,0.1,0.3,0.3,0.5,0.4s0.5,0.2,0.8,0.2v0.3H283z M280.5,43.7c-0.1,0.2-0.2,0.5-0.3,0.9
		c-0.1,0.4-0.3,0.9-0.5,1.4c-0.2,0.6-0.4,1.2-0.7,1.9c-0.3,0.7-0.5,1.5-0.8,2.3h4.7c-0.2-0.6-0.4-1.3-0.6-1.9
		c-0.2-0.6-0.4-1.2-0.6-1.8s-0.4-1.1-0.6-1.6C280.8,44.4,280.6,44,280.5,43.7z"/>
	<path class="st1" d="M299.4,56.4h-11.3l-0.1-0.1l9.5-14.5c-0.3,0-0.6,0-1.1,0c-0.4,0-0.9,0-1.3,0c-0.5,0-0.9,0-1.3,0
		c-0.4,0-0.7,0-1,0c-0.5,0-0.9,0.1-1.3,0.3c-0.4,0.2-0.7,0.4-1,0.7c-0.2,0.1-0.3,0.3-0.6,0.6c-0.2,0.2-0.4,0.5-0.7,0.8
		s-0.4,0.6-0.6,0.9s-0.4,0.6-0.5,0.8l-0.2-0.1l1.4-4.4c0.2,0,0.5,0,1,0c0.5,0,1,0,1.7,0c0.6,0,1.3,0,2.1,0c0.8,0,1.5,0,2.2,0
		c0.7,0,1.4,0,2.1,0c0.7,0,1.2,0,1.7,0l0.1,0.1L290.6,56c0.6,0,1.2,0,1.7,0c0.5,0,1,0,1.5,0c0.2,0,0.5,0,0.8,0c0.3,0,0.7,0,1-0.1
		c1-0.1,1.9-0.6,2.7-1.4c0.8-0.8,1.5-1.8,2.1-3l0.2,0.1L299.4,56.4z"/>
	<path class="st1" d="M301.5,56.4v-0.2c0.3-0.1,0.6-0.1,0.9-0.3c0.3-0.1,0.5-0.3,0.7-0.5c0.1-0.1,0.1-0.2,0.1-0.4
		c0-0.2,0.1-0.3,0.1-0.5c0-0.2,0-0.4,0-0.7c0-0.2,0-0.5,0-0.7c0-0.2,0-0.5,0-0.8c0-0.3,0-0.7,0-1.1c0-0.4,0-0.8,0-1.2
		c0-0.4,0-0.8,0-1.2v-4.1c0-0.3,0-0.5,0-0.8c0-0.3,0-0.5,0-0.7c0-0.2,0-0.4-0.1-0.6c0-0.2-0.1-0.3-0.2-0.4c-0.2-0.2-0.4-0.4-0.6-0.5
		c-0.3-0.1-0.5-0.2-0.9-0.2v-0.2h5.6v0.2c-0.3,0-0.5,0.1-0.8,0.2s-0.5,0.3-0.7,0.7c-0.1,0.2-0.2,0.5-0.2,0.9c0,0.4,0,0.7,0,1
		c0,0.3,0,0.7,0,1c0,0.3,0,0.7,0,1c0,0.3,0,0.7,0,1.1c0,0.4,0,0.8,0,1.2v4.7c0,0.4,0,0.8,0,1.2c0,0.4,0.1,0.6,0.2,0.8
		c0.2,0.2,0.4,0.4,0.7,0.5c0.3,0.1,0.6,0.2,0.9,0.2v0.2H301.5z"/>
	<path class="st1" d="M322.8,41.9c-0.3,0.2-0.5,0.5-0.6,0.9c-0.1,0.2-0.1,0.6-0.2,1.2c0,0.6-0.1,1.2-0.1,1.8c0,0.6,0,1.3-0.1,2.1
		c0,0.8,0,1.7,0,2.6c0,0.4,0,0.8,0,1.3c0,0.5,0,1,0,1.5c0,0.5,0,1,0,1.5c0,0.5,0,1,0,1.4c0,0.1,0,0.1,0,0.1c0,0-0.1,0.1-0.1,0.1
		c-0.1,0-0.2-0.1-0.3-0.2c-1.1-1.4-2-2.6-2.9-3.8c-0.9-1.1-1.7-2.2-2.5-3.3c-0.8-1-1.6-2-2.3-3s-1.6-2-2.4-3.1v8.8
		c0,0.7,0,1.3,0,1.9c0,0.6,0.1,1,0.2,1.3c0.1,0.3,0.4,0.6,0.6,0.7c0.3,0.2,0.7,0.3,1.2,0.3v0.2h-4.6v-0.2c0.3,0,0.6-0.1,0.9-0.3
		c0.3-0.1,0.5-0.4,0.7-0.7c0.2-0.3,0.3-0.7,0.3-1.3c0.1-0.6,0.1-1.3,0.1-2c0-0.6,0-1.3,0.1-2.1c0-0.8,0-1.7,0-2.6c0-0.4,0-0.7,0-1
		c0-0.3,0-0.5,0-0.8c0-0.3,0-0.5,0-0.8c0-0.3,0-0.6,0-1c0-0.4-0.1-0.7-0.3-1c-0.1-0.3-0.3-0.5-0.5-0.6c-0.2-0.1-0.4-0.3-0.6-0.3
		c-0.2-0.1-0.4-0.1-0.6-0.1v-0.2h3.8l8.9,11.6v-7.1c0-0.6,0-1.1,0-1.6c0-0.5-0.1-0.9-0.2-1.2c-0.1-0.4-0.3-0.7-0.7-0.9
		c-0.3-0.2-0.8-0.4-1.4-0.5v-0.2h4.7v0.2C323.4,41.6,323,41.8,322.8,41.9z"/>
	<path class="st1" d="M336.5,56.4h-11.5v-0.2c0.3-0.1,0.6-0.1,0.9-0.3c0.3-0.1,0.5-0.3,0.7-0.5c0.1-0.1,0.1-0.2,0.2-0.4
		c0-0.2,0.1-0.3,0.1-0.6c0-0.2,0.1-0.4,0.1-0.7c0-0.2,0-0.5,0-0.7c0-0.2,0-0.5,0-0.8c0-0.3,0-0.7,0-1.1c0-0.4,0-0.8,0-1.2
		c0-0.4,0-0.8,0-1.2v-4.1c0-0.3,0-0.5,0-0.8c0-0.3,0-0.5,0-0.8c0-0.2-0.1-0.4-0.1-0.6c0-0.2-0.1-0.3-0.2-0.4
		c-0.2-0.2-0.4-0.4-0.6-0.4c-0.2-0.1-0.5-0.1-0.8-0.2v-0.2h10.4l1.3,3.4l-0.2,0.1c-1-1.4-2-2.4-2.9-2.8c-0.2-0.1-0.6-0.2-1.2-0.3
		c-0.6-0.1-1.3-0.1-2.1-0.1c-0.3,0-0.5,0-0.8,0c-0.3,0-0.5,0-0.6,0.1c0,0.2,0,0.7-0.1,1.4c0,0.7,0,1.5,0,2.4c0,0.5,0,1,0,1.3
		c0,0.4,0,0.7,0,0.9c0,0.2,0,0.4,0,0.5c0,0.1,0,0.2,0,0.2c0.1,0,0.2,0,0.4,0c0.2,0,0.4,0,0.6,0c0.2,0,0.5,0,0.7-0.1
		c0.2,0,0.4-0.1,0.6-0.1c0.4-0.1,0.7-0.2,0.9-0.4c0.3-0.2,0.5-0.4,0.6-0.6c0.2-0.2,0.3-0.5,0.4-0.8c0.1-0.3,0.2-0.7,0.3-1.1h0.2V52
		h-0.2c-0.1-0.4-0.3-0.9-0.5-1.4c-0.2-0.5-0.4-0.8-0.6-1.1c-0.2-0.2-0.4-0.4-0.7-0.5c-0.3-0.1-0.6-0.2-1-0.2c-0.2,0-0.3,0-0.5,0
		c-0.1,0-0.3,0-0.4,0c-0.1,0-0.2,0-0.4,0c-0.1,0-0.3,0-0.5,0c0,0.2,0,0.5,0,0.9c0,0.4,0,0.8,0,1.2c0,0.2,0,0.4,0,0.6s0,0.5,0,0.7
		c0,0.2,0,0.4,0,0.6c0,0.2,0,0.4,0,0.5c0,0.4,0,0.9,0.1,1.3c0,0.4,0.1,0.7,0.2,0.9c0.1,0.2,0.4,0.3,0.8,0.4c0.4,0.1,0.9,0.1,1.4,0.1
		c0.2,0,0.5,0,0.8,0c0.3,0,0.7,0,1-0.1c0.4-0.1,0.8-0.2,1.1-0.3c0.3-0.2,0.7-0.4,1-0.7c0.3-0.3,0.6-0.6,0.9-1.1
		c0.3-0.4,0.6-0.9,0.9-1.5l0.2,0.1L336.5,56.4z"/>
</g>
<g>
	<path class="st1" d="M13.8,106.9c0-0.9,0-1.3,0-1.7c0-0.5-0.2-0.5-1.3-0.6l0-0.4c0.4,0,1.3,0,2,0s1.5,0,2,0l0,0.4
		c-1,0-1.2,0.1-1.2,0.5c0,0.3-0.1,0.8-0.1,1.7v3.9c0,1,0,1.6,0.1,2.1c0,0.4,0.3,0.5,1.2,0.5l0,0.4c-0.6,0-1.4,0-2.1,0
		c-0.6,0-1.5,0-1.9,0l0-0.4c1,0,1.2-0.1,1.2-0.5c0-0.3,0.1-0.8,0.1-2V106.9z"/>
	<path class="st1" d="M18.6,104.2c0.3,0,1,0,1.5,0c0.5,0,0.8,0,1.2,0c0.1,0.2,0.4,0.6,0.8,1.3c0.4,0.7,2.1,3.1,4.3,6.2
		c0-4.4-0.1-5.9-0.1-6.3c-0.1-0.5-0.2-0.6-0.8-0.7l-0.8-0.1l0.1-0.4c0.6,0,1.3,0,1.8,0c0.6,0,1.2,0,1.6,0v0.4
		c-0.3,0-0.6,0.1-0.8,0.1c-0.2,0.1-0.3,0.2-0.4,0.5c-0.1,0.6-0.2,2.4-0.2,4.7v3.8c-0.2,0-0.6,0.1-0.9,0.2c-1.3-2.1-3.8-5.7-5.6-8.3
		c0,3.4,0,6.5,0.1,7c0.1,0.4,0.2,0.5,0.5,0.6c0.3,0,0.7,0.1,1,0.1l0,0.4c-0.5,0-1.2,0-2,0c-0.7,0-1.2,0-1.6,0l0-0.4
		c0.2,0,0.5,0,0.8-0.1c0.4-0.1,0.5-0.3,0.5-0.7c0.1-0.6,0.2-3.9,0.2-7.3c0-0.2-0.1-0.2-0.2-0.4c-0.1-0.1-0.3-0.2-0.6-0.2l-0.7-0.1
		V104.2z"/>
	<path class="st1" d="M31.2,110.6c-0.1,1.9,0.8,2.9,2.3,2.9c1,0,1.9-0.6,1.9-1.8c0-0.6-0.3-1.1-0.8-1.4c-0.5-0.3-1.6-0.8-2.3-1.2
		c-1-0.6-1.4-1.4-1.4-2.3c0-1.7,1.2-2.7,2.9-2.7c0.9,0,1.6,0.3,1.9,0.6L36,104l0.4,0.1c-0.2,1.2-0.2,2.4-0.2,2.9l-0.4,0
		c0-1.7-0.9-2.5-2-2.5c-1,0-1.6,0.7-1.6,1.7c0,0.7,0.3,1.2,1,1.6c1.1,0.6,1.9,0.9,2.4,1.3c0.8,0.4,1.2,1,1.2,2
		c0,1.9-1.6,2.9-3.5,2.9c-0.9,0-2-0.3-2.6-0.6c0.1-0.8,0.1-1.9,0.1-2.7L31.2,110.6z"/>
	<path class="st1" d="M40.4,107.1c0-1.2,0-1.7,0-2c0-0.2-0.1-0.4-0.3-0.4l-1-0.1l0.1-0.4c0.3,0,1.1,0,1.7,0c0.6,0,1.3,0,2.3,0
		c1.5,0,2.1,0.3,2.6,0.7c0.5,0.5,0.8,1.2,0.8,2c0,0.9-0.3,1.6-0.8,2.2c-0.6,0.6-1.4,0.9-2.3,0.9c-0.4,0-0.9-0.1-1.1-0.2l0-0.4
		c0.2,0,0.5,0.1,0.8,0.1c0.5,0,0.9-0.2,1.2-0.6c0.3-0.4,0.5-1,0.5-1.8c0-0.8-0.2-1.4-0.5-1.7c-0.4-0.4-0.9-0.6-1.7-0.6
		c-0.8,0-0.8,0.1-0.9,0.3c0,0.5-0.1,1.2-0.1,2.4v3.8c0,0.9,0,1.4,0,1.7c0,0.3,0.1,0.4,0.5,0.4l0.9,0.1l0,0.4c-0.7,0-1.5,0-2.3,0
		c-0.7,0-1.4,0-2,0l0-0.4l0.6-0.1c0.5,0,0.6-0.1,0.7-0.6c0-0.6,0.1-1.7,0.1-2.8V107.1z"/>
	<path class="st1" d="M50.1,106.9c0-0.9,0-1.3,0-1.7c0-0.5-0.2-0.5-1.3-0.6l0-0.4c0.4,0,1.3,0,2,0s1.5,0,2,0l0,0.4
		c-1,0-1.2,0.1-1.2,0.5c0,0.3-0.1,0.8-0.1,1.7v3.9c0,1,0,1.6,0.1,2.1c0,0.4,0.3,0.5,1.2,0.5l0,0.4c-0.6,0-1.4,0-2.1,0
		c-0.6,0-1.5,0-1.9,0l0-0.4c1,0,1.2-0.1,1.2-0.5c0-0.3,0.1-0.8,0.1-2V106.9z"/>
	<path class="st1" d="M56.3,107.4c0-1.4,0-2,0-2.3c0-0.2-0.1-0.3-0.4-0.3l-0.9-0.1l0.1-0.4c0.3,0,1.1,0,1.8,0c0.7,0,1.5,0,2.3,0
		c1.4,0,2.1,0.2,2.5,0.6c0.4,0.4,0.6,1,0.6,1.5c0,1.6-1.2,2.2-2.6,2.4v0.1c1.4,0.2,2.3,0.7,2.5,2c0.1,0.4,0.1,1,0.2,1.4
		c0.1,0.7,0.3,1,0.8,1c0.1,0,0.3,0,0.4,0l-0.1,0.4c-0.2,0.1-0.7,0.1-1,0.1c-1.2,0-1.7-0.5-1.8-1.8c0-0.4-0.1-0.8-0.1-1.2
		c-0.1-1.5-1-1.8-2.4-1.8h-0.5v1.5c0,1.2,0,1.7,0.1,2.2c0,0.4,0.2,0.4,1.3,0.5l0,0.4c-0.5,0-1.4,0-2,0c-0.8,0-1.4,0-2,0l0-0.4
		c1-0.1,1.2-0.1,1.2-0.5c0-0.4,0.1-1,0.1-2.4V107.4z M57.8,108.7h0.5c1.6,0,2.4-0.6,2.4-2.1c0-0.5-0.1-1-0.3-1.2
		c-0.2-0.3-0.6-0.6-1.5-0.6c-0.3,0-0.6,0-0.8,0.1c-0.1,0-0.2,0.1-0.2,0.3c0,0.2-0.1,0.7-0.1,2V108.7z"/>
	<path class="st1" d="M66.6,106.9c0-0.9,0-1.3,0-1.7c0-0.5-0.2-0.5-1.3-0.6l0-0.4c0.4,0,1.3,0,2,0s1.5,0,2,0l0,0.4
		c-1,0-1.2,0.1-1.2,0.5c0,0.3-0.1,0.8-0.1,1.7v3.9c0,1,0,1.6,0.1,2.1c0,0.4,0.3,0.5,1.2,0.5l0,0.4c-0.6,0-1.4,0-2.1,0
		c-0.6,0-1.5,0-1.9,0l0-0.4c1,0,1.2-0.1,1.2-0.5c0-0.3,0.1-0.8,0.1-2V106.9z"/>
	<path class="st1" d="M71.4,104.2c0.3,0,1,0,1.5,0c0.5,0,0.8,0,1.2,0c0.1,0.2,0.4,0.6,0.8,1.3c0.4,0.7,2.1,3.1,4.3,6.2
		c0-4.4-0.1-5.9-0.1-6.3c-0.1-0.5-0.2-0.6-0.8-0.7l-0.8-0.1l0.1-0.4c0.6,0,1.3,0,1.8,0c0.6,0,1.2,0,1.6,0v0.4
		c-0.3,0-0.6,0.1-0.8,0.1c-0.2,0.1-0.3,0.2-0.4,0.5c-0.1,0.6-0.2,2.4-0.2,4.7v3.8c-0.2,0-0.6,0.1-0.9,0.2c-1.3-2.1-3.8-5.7-5.6-8.3
		c0,3.4,0,6.5,0.1,7c0.1,0.4,0.2,0.5,0.5,0.6c0.3,0,0.7,0.1,1,0.1l0,0.4c-0.5,0-1.2,0-2,0c-0.7,0-1.2,0-1.6,0l0-0.4
		c0.2,0,0.5,0,0.8-0.1c0.4-0.1,0.5-0.3,0.5-0.7c0.1-0.6,0.2-3.9,0.2-7.3c0-0.2-0.1-0.2-0.2-0.4c-0.1-0.1-0.3-0.2-0.6-0.2l-0.7-0.1
		V104.2z"/>
	<path class="st1" d="M90.9,107.4c-0.1-1.9-1-3-2.6-3c-0.9,0-1.7,0.3-2.3,1.2c-0.6,0.8-0.9,2-0.9,3.4c0,1.2,0.3,2.4,0.8,3.2
		c0.6,0.9,1.4,1.3,2.5,1.3c1,0,1.6-0.3,1.6-0.9c0.1-0.4,0.1-1.3,0.1-1.9c0-0.8-0.1-0.9-0.9-1l-0.8-0.1l0-0.4c0.5,0,1.6,0,2.2,0
		s1.4,0,1.8,0v0.4c-0.8,0.1-0.9,0.2-0.9,0.5c-0.1,0.6,0,1.2,0,1.6c0,0.8,0,1.2,0.1,1.5c-0.3,0.1-1.1,0.3-1.5,0.4
		c-0.5,0.1-1.3,0.3-2,0.3c-1.8,0-3-0.5-3.8-1.5c-0.6-0.8-1-2-1-3.4c0-2,0.8-3.6,2.2-4.4c0.8-0.5,1.6-0.7,2.7-0.7
		c1.4,0,2.2,0.5,2.6,0.8l0.3-0.8l0.4,0.1c-0.1,0.5-0.3,2.1-0.2,3.2H90.9z"/>
	<path class="st1" d="M104.1,110.1c0,1.5,0,2.4,0.1,2.8c0,0.3,0.1,0.4,0.4,0.4c0.5,0.1,0.7,0.1,1.2,0.1l0,0.4c-0.5,0-1.5,0-2.5,0
		c-0.7,0-1.5,0-2.2,0l-0.1-0.4c0.3,0,0.6,0,1.1-0.1c0.3,0,0.5-0.1,0.5-0.4c0-0.5,0-1.2,0-2.8v-3.2c0-1,0-1.8,0-2.2
		c-2,0-2.2,0.1-2.5,0.7c-0.2,0.5-0.4,1-0.5,1.6l-0.4-0.1c0.1-0.8,0.3-2.2,0.3-2.8c0.4,0.1,1.4,0.1,3.2,0.1h1.2c2.2,0,2.9,0,3.5-0.1
		c0,0.2-0.2,1.6-0.1,2.7l-0.4,0.1c-0.1-0.9-0.2-1.4-0.3-1.7c-0.1-0.4-0.4-0.6-2.4-0.5c0,0.4,0,1.2,0,2V110.1z"/>
	<path class="st1" d="M111.1,107c0-0.9,0-1.3,0-1.8c0-0.4-0.3-0.5-1.2-0.5v-0.4c0.4,0,1.2,0,1.9,0c0.5,0,1.4,0,2,0l0,0.4
		c-0.9,0-1.1,0.1-1.1,0.5c0,0.4-0.1,1-0.1,1.7v1.7c0.4,0,1.2,0,2.1,0c0.8,0,1.6,0,2.3,0v-1.7c0-0.9,0-1.4,0-1.8
		c0-0.3-0.3-0.4-1.2-0.4v-0.4c0.7,0,1.5,0,1.9,0c0.7,0,1.7,0,2,0v0.4c-0.9,0-1.2,0.1-1.2,0.5c0,0.5,0,1,0,1.8v3.8c0,1,0,1.7,0,2.1
		c0,0.4,0.2,0.5,1.2,0.5l0,0.4c-0.5,0-1.4,0-2,0c-0.6,0-1.4,0-1.9,0l0-0.4c0.9,0,1.2-0.1,1.2-0.5c0-0.3,0-0.8,0-2v-1.8
		c-0.6,0-1.4,0-2.3,0s-1.7,0-2.1,0v1.8c0,0.9,0,1.5,0,2c0,0.4,0.3,0.5,1.2,0.5v0.4c-0.5,0-1.4,0-2.1,0c-0.6,0-1.4,0-1.9,0v-0.4
		c1,0,1.2-0.1,1.2-0.5c0-0.4,0.1-0.9,0.1-2V107z"/>
	<path class="st1" d="M121.9,104.2c0.4,0,1.4,0,2.2,0h2.5c1,0,1.8,0,2.1-0.1c0,0.4-0.1,1.8,0,2.5l-0.4,0c-0.1-0.4-0.2-0.9-0.3-1.3
		c-0.2-0.5-0.4-0.7-1.9-0.7h-1.1c-0.2,0-0.2,0.1-0.2,0.2c0,0.5-0.1,1.1-0.1,2v1.6c0.2,0,0.7,0,0.9,0c1.4,0,1.6-0.3,1.7-1.3h0.4
		c-0.1,1-0.1,2.3,0,3.2h-0.4c-0.1-1.1-0.3-1.5-1.7-1.5c-0.3,0-0.7,0-0.9,0v1.4c0,0.9,0,1.8,0.1,2.3c0,0.3,0.1,0.4,1.5,0.4
		c1.4,0,1.8-0.1,2.2-0.5c0.3-0.4,0.6-1.1,0.8-1.7l0.4,0c0,0.4-0.3,2.3-0.4,2.7c-0.5,0-1.4-0.1-3.2-0.1H124c-0.7,0-1.8,0-2.3,0l0-0.4
		l0.9-0.1c0.3,0,0.4-0.1,0.4-0.6c0-0.6,0.1-1.3,0.1-2.2v-3.2c0-1.1,0-1.8,0-2.3c0-0.3-0.1-0.4-0.5-0.4l-0.8-0.1V104.2z"/>
	<path class="st1" d="M136.4,113.4c1,0,1.2-0.1,1.2-0.4c0-0.5,0.1-1.2,0.1-2.1v-4c0-0.9,0-1.5,0-2c0-0.2-0.3-0.3-1.2-0.3v-0.4
		c0.5,0,1.1,0,1.8,0s1.6,0,2.4,0c1.4,0,2,0.2,2.4,0.6c0.4,0.3,0.6,0.9,0.6,1.5c0,1.2-0.7,1.7-1.2,2c-0.3,0.1-0.6,0.2-1,0.3v0.1
		c0.8,0.1,1.5,0.3,2,0.6c0.5,0.3,0.8,0.9,0.8,1.8c0,1-0.4,1.6-1.2,2.1c-0.7,0.5-1.8,0.6-2.8,0.6c-0.7,0-1.4,0-2,0
		c-0.4,0-1.3,0-1.8,0L136.4,113.4z M139.1,108.5c0.2,0,0.4,0,0.8,0c1.3,0,2.1-0.5,2.1-2c0-0.5-0.1-0.9-0.3-1.2
		c-0.2-0.4-0.7-0.6-1.6-0.6c-0.8,0-0.9,0.1-0.9,0.3c0,0.4-0.1,1-0.1,1.8V108.5z M139.1,111c0,1,0,1.5,0,2c0,0.2,0.2,0.3,0.8,0.3
		c1.2,0,1.9-0.3,2.2-0.8c0.2-0.4,0.4-0.9,0.4-1.5c0-0.7-0.1-1.1-0.5-1.5c-0.4-0.4-1-0.6-2.2-0.6c-0.3,0-0.6,0-0.8,0V111z"/>
	<path class="st1" d="M146.4,104.2c0.6,0,1.3,0,2,0c0.5,0,1.3,0,1.9,0l0,0.4l-0.8,0.1c-0.2,0-0.3,0.1-0.3,0.4
		c-0.1,1.1-0.1,4.2,0,5.8c0.1,1,0.3,1.4,0.6,1.7c0.4,0.4,1.2,0.7,1.8,0.7c1.4,0,2.4-0.5,2.5-2.6c0.1-2,0.1-4.3,0-5.3
		c0-0.6-0.3-0.6-0.6-0.6l-0.8-0.1l0-0.4c0.5,0,1.1,0,1.6,0c0.5,0,1.1,0,1.7-0.1l0.1,0.4l-0.6,0c-0.4,0-0.5,0.2-0.5,0.6
		c-0.1,2.1-0.1,4.7-0.3,5.9c-0.1,1-0.5,1.7-1.2,2.2c-0.6,0.4-1.4,0.6-2.4,0.6c-1.2,0-2.2-0.3-2.8-1c-0.5-0.5-0.7-1.1-0.7-2.5
		c0-1.1,0-4.6,0-5.3c0-0.3-0.1-0.5-0.3-0.5l-0.8-0.1V104.2z"/>
	<path class="st1" d="M158.8,110.6c-0.1,1.9,0.8,2.9,2.3,2.9c1,0,1.9-0.6,1.9-1.8c0-0.6-0.3-1.1-0.8-1.4c-0.5-0.3-1.6-0.8-2.3-1.2
		c-1-0.6-1.4-1.4-1.4-2.3c0-1.7,1.2-2.7,2.9-2.7c0.9,0,1.6,0.3,2,0.6l0.3-0.7l0.4,0.1c-0.2,1.2-0.2,2.4-0.2,2.9l-0.4,0
		c0-1.7-0.9-2.5-2-2.5c-1,0-1.6,0.7-1.6,1.7c0,0.7,0.3,1.2,1,1.6c1.1,0.6,1.9,0.9,2.4,1.3c0.8,0.4,1.2,1,1.2,2
		c0,1.9-1.6,2.9-3.5,2.9c-0.9,0-2-0.3-2.6-0.6c0.1-0.8,0.1-1.9,0.1-2.7L158.8,110.6z"/>
	<path class="st1" d="M168,106.9c0-0.9,0-1.3,0-1.7c0-0.5-0.2-0.5-1.3-0.6l0-0.4c0.4,0,1.3,0,2,0c0.7,0,1.5,0,2,0l0,0.4
		c-1,0-1.2,0.1-1.2,0.5c0,0.3-0.1,0.8-0.1,1.7v3.9c0,1,0,1.6,0.1,2.1c0,0.4,0.3,0.5,1.2,0.5l0,0.4c-0.6,0-1.4,0-2.1,0
		c-0.6,0-1.5,0-2,0l0-0.4c1,0,1.2-0.1,1.2-0.5c0-0.3,0.1-0.8,0.1-2V106.9z"/>
	<path class="st1" d="M172.8,104.2c0.3,0,1,0,1.5,0c0.5,0,0.8,0,1.2,0c0.1,0.2,0.4,0.6,0.8,1.3c0.4,0.7,2.1,3.1,4.3,6.2
		c0-4.4-0.1-5.9-0.1-6.3c-0.1-0.5-0.2-0.6-0.8-0.7l-0.8-0.1l0.1-0.4c0.6,0,1.3,0,1.8,0c0.6,0,1.2,0,1.6,0v0.4
		c-0.3,0-0.6,0.1-0.8,0.1c-0.2,0.1-0.3,0.2-0.4,0.5c-0.1,0.6-0.2,2.4-0.2,4.7v3.8c-0.2,0-0.6,0.1-0.9,0.2c-1.3-2.1-3.8-5.7-5.6-8.3
		c0,3.4,0,6.5,0.1,7c0.1,0.4,0.2,0.5,0.5,0.6c0.3,0,0.7,0.1,1,0.1l0,0.4c-0.5,0-1.2,0-2,0c-0.7,0-1.2,0-1.6,0l0-0.4
		c0.2,0,0.5,0,0.8-0.1c0.4-0.1,0.5-0.3,0.5-0.7c0.1-0.6,0.2-3.9,0.2-7.3c0-0.2-0.1-0.2-0.2-0.4c-0.1-0.1-0.3-0.2-0.6-0.2l-0.7-0.1
		V104.2z"/>
	<path class="st1" d="M184.5,104.2c0.4,0,1.4,0,2.2,0h2.5c1,0,1.8,0,2.1-0.1c0,0.4-0.1,1.8,0,2.5l-0.4,0c-0.1-0.4-0.2-0.9-0.3-1.3
		c-0.2-0.5-0.4-0.7-1.9-0.7h-1.1c-0.2,0-0.2,0.1-0.2,0.2c0,0.5-0.1,1.1-0.1,2v1.6c0.2,0,0.7,0,0.9,0c1.3,0,1.6-0.3,1.7-1.3h0.4
		c-0.1,1-0.1,2.3,0,3.2h-0.4c-0.1-1.1-0.3-1.5-1.7-1.5c-0.3,0-0.7,0-0.9,0v1.4c0,0.9,0,1.8,0.1,2.3c0,0.3,0.1,0.4,1.5,0.4
		c1.4,0,1.8-0.1,2.2-0.5c0.3-0.4,0.6-1.1,0.8-1.7l0.4,0c0,0.4-0.3,2.3-0.4,2.7c-0.5,0-1.4-0.1-3.2-0.1h-1.9c-0.7,0-1.8,0-2.3,0
		l0-0.4l0.9-0.1c0.3,0,0.4-0.1,0.4-0.6c0-0.6,0.1-1.3,0.1-2.2v-3.2c0-1.1,0-1.8,0-2.3c0-0.3-0.1-0.4-0.5-0.4l-0.8-0.1V104.2z"/>
	<path class="st1" d="M195.4,110.6c-0.1,1.9,0.8,2.9,2.3,2.9c1,0,1.9-0.6,1.9-1.8c0-0.6-0.3-1.1-0.8-1.4c-0.5-0.3-1.6-0.8-2.3-1.2
		c-1-0.6-1.4-1.4-1.4-2.3c0-1.7,1.2-2.7,2.9-2.7c0.9,0,1.6,0.3,2,0.6l0.3-0.7l0.4,0.1c-0.2,1.2-0.2,2.4-0.2,2.9l-0.4,0
		c0-1.7-0.9-2.5-2-2.5c-1,0-1.6,0.7-1.6,1.7c0,0.7,0.3,1.2,1,1.6c1.1,0.6,1.9,0.9,2.4,1.3c0.8,0.4,1.2,1,1.2,2
		c0,1.9-1.6,2.9-3.5,2.9c-0.9,0-2-0.3-2.6-0.6c0.1-0.8,0.1-1.9,0.1-2.7L195.4,110.6z"/>
	<path class="st1" d="M204.3,110.6c-0.1,1.9,0.8,2.9,2.3,2.9c1,0,1.9-0.6,1.9-1.8c0-0.6-0.3-1.1-0.8-1.4c-0.5-0.3-1.6-0.8-2.3-1.2
		c-1-0.6-1.4-1.4-1.4-2.3c0-1.7,1.2-2.7,2.9-2.7c0.9,0,1.6,0.3,2,0.6l0.3-0.7l0.4,0.1c-0.2,1.2-0.2,2.4-0.2,2.9l-0.4,0
		c0-1.7-0.9-2.5-2-2.5c-1,0-1.6,0.7-1.6,1.7c0,0.7,0.3,1.2,1,1.6c1.1,0.6,1.9,0.9,2.4,1.3c0.8,0.4,1.2,1,1.2,2
		c0,1.9-1.6,2.9-3.5,2.9c-0.9,0-2-0.3-2.6-0.6c0.1-0.8,0.1-1.9,0.1-2.7L204.3,110.6z"/>
	<path class="st1" d="M227.4,104.2c0.5,0,1,0,1.7,0c0.7,0,1.1,0,1.5,0v0.4c-0.9,0.1-1,0.2-1.3,0.9c-0.7,2-1.8,5.5-2.7,8.3
		c-0.3,0-0.7,0-1,0c-0.4-1.7-1.4-4.8-2.3-7.8c-1.1,4-1.7,5.8-2.2,7.8c-0.2,0-0.7,0-1,0c-0.6-2.4-1.9-6.8-2.5-8.4
		c-0.3-0.8-0.5-0.9-1.4-0.9v-0.4c0.4,0,1,0,1.8,0c0.6,0,1.3,0,1.9,0l0.1,0.4l-0.8,0.1c-0.2,0-0.3,0.1-0.2,0.3c0.5,2,1.5,5.4,2,7
		c1-3.4,2-7.1,2.1-7.8c0.3,0,0.8,0,1.1,0c0.2,0.8,1.1,4.1,2.3,7.9c1-3.1,1.8-6,2-6.8c0.1-0.4,0-0.5-0.3-0.6l-0.9-0.1L227.4,104.2z"
		/>
	<path class="st1" d="M241.4,108.8c0,3.4-1.8,5.1-4.4,5.1c-2.6,0-4.4-1.7-4.4-4.9c0-2.8,1.6-5.1,4.5-5.1
		C239.9,104,241.4,106.2,241.4,108.8z M235,105.6c-0.4,0.7-0.7,1.8-0.7,3.3c0,1.5,0.3,2.7,0.8,3.5c0.5,0.8,1.2,1.2,2,1.2
		c0.8,0,1.4-0.3,1.9-1.1c0.4-0.7,0.6-1.9,0.6-3.3c0-1.4-0.3-2.6-0.7-3.4c-0.5-0.8-1.1-1.2-2-1.2C236.2,104.5,235.5,104.9,235,105.6z
		"/>
	<path class="st1" d="M245.4,107.4c0-1.4,0-2,0-2.3c0-0.2-0.1-0.3-0.4-0.3l-0.9-0.1l0.1-0.4c0.3,0,1.1,0,1.8,0c0.7,0,1.5,0,2.3,0
		c1.4,0,2.1,0.2,2.5,0.6c0.4,0.4,0.6,1,0.6,1.5c0,1.6-1.2,2.2-2.6,2.4v0.1c1.4,0.2,2.3,0.7,2.5,2c0.1,0.4,0.2,1,0.2,1.4
		c0.1,0.7,0.3,1,0.8,1c0.1,0,0.3,0,0.4,0l-0.1,0.4c-0.2,0.1-0.7,0.1-1,0.1c-1.2,0-1.7-0.5-1.8-1.8c0-0.4-0.1-0.8-0.1-1.2
		c-0.2-1.5-1-1.8-2.4-1.8h-0.5v1.5c0,1.2,0,1.7,0.1,2.2c0,0.4,0.2,0.4,1.3,0.5l0,0.4c-0.5,0-1.4,0-2,0c-0.8,0-1.4,0-2,0l0-0.4
		c1-0.1,1.2-0.1,1.2-0.5c0-0.4,0.1-1,0.1-2.4V107.4z M246.8,108.7h0.5c1.6,0,2.4-0.6,2.4-2.1c0-0.5-0.1-1-0.3-1.2
		c-0.2-0.3-0.6-0.6-1.5-0.6c-0.3,0-0.6,0-0.8,0.1c-0.1,0-0.2,0.1-0.2,0.3c0,0.2-0.1,0.7-0.1,2V108.7z"/>
	<path class="st1" d="M261.7,110.9c-0.1,0.7-0.3,1.9-0.3,2.9c-0.3,0-0.9,0-1.8-0.1c-0.9,0-2,0-3.1,0c-0.7,0-1.8,0-2.2,0v-0.4
		l0.9-0.1c0.3,0,0.4-0.1,0.5-0.4c0-0.5,0.1-1.5,0.1-2.7V107c0-1.2,0-1.7,0-2c0-0.2-0.1-0.3-0.4-0.3l-0.8-0.1l0-0.4c0.4,0,1.4,0,2,0
		c0.5,0,1.2,0,2,0l0,0.4l-0.8,0.1c-0.3,0-0.4,0.1-0.4,0.4c0,0.6-0.1,1.3-0.1,2.5v2.7c0,1.2,0,2.4,0,2.8c0,0.2,0.1,0.3,1.1,0.3
		c1.6,0,2.1-0.1,2.4-0.6c0.3-0.4,0.5-1.1,0.7-1.8L261.7,110.9z"/>
	<path class="st1" d="M265.2,107.3c0-1.2,0-1.9,0-2.2c0-0.3-0.1-0.3-0.4-0.3l-0.9-0.1l0-0.4c0.3,0,1.2,0,1.8,0c0.7,0,1.5,0,2.4,0
		c1.6,0,2.5,0.2,3.1,0.6c1.1,0.7,1.8,2,1.8,3.9c0,2-0.7,3.7-2.5,4.6c-0.7,0.3-1.6,0.5-2.6,0.5c-0.7,0-1.5-0.1-2.2-0.1
		c-0.6,0-1.6,0-1.9,0v-0.4l0.7,0c0.4,0,0.6-0.2,0.6-0.4c0-0.3,0.1-1.2,0.1-2.6V107.3z M266.7,110.3c0,1.8,0,2.3,0,2.6
		c0,0.2,0.2,0.3,1,0.3c1.5,0,2.4-0.5,2.9-1.2c0.5-0.7,0.8-1.8,0.8-3.4c0-1.5-0.3-2.5-0.9-3.1c-0.6-0.7-1.4-1-2.6-1
		c-1.1,0-1.2,0.1-1.2,0.3c0,0.2-0.1,0.8-0.1,2.3V110.3z"/>
</g>
<g>
	<path class="st1" d="M291.4,31.8h-0.7v-0.3h1.9v0.3h-0.7v2.4h-0.4V31.8z"/>
	<path class="st1" d="M294.3,33.3l0.7-1.8h0.6v2.8h-0.4v-2.3h0c-0.2,0.6-0.5,1.3-0.8,1.9h-0.4l-0.8-1.9h0v2.3h-0.4v-2.8h0.6
		L294.3,33.3L294.3,33.3z"/>
</g>
</svg>
